[ {
  "name" : "webanno.custom.Coref",
  "features" : [ {
    "name" : "Commentaires",
    "tag_set" : null,
    "uiName" : "Commentaires",
    "type" : "uima.cas.String",
    "enabled" : true,
    "visible" : true,
    "include_in_hover" : false,
    "required" : false,
    "remember" : false,
    "hideUnconstraintFeature" : false,
    "description" : null,
    "project_name" : "CORLI-GUMbis",
    "multi_value_mode" : "NONE",
    "link_mode" : "NONE",
    "link_type_name" : null,
    "link_type_role_feature_name" : null,
    "link_type_target_feature_name" : null,
    "traits" : "{\"multipleRows\":false,\"dynamicSize\":false,\"collapsedRows\":1,\"expandedRows\":1,\"editorType\":\"AUTO\",\"keyBindings\":[]}",
    "curatable" : true
  } ],
  "uiName" : "CorefRelations",
  "type" : "relation",
  "description" : "Relations de coréférence (incluant les coréférences floues) entre Mentions, selon les définitions données dans le guide ResolCo.",
  "enabled" : true,
  "built_in" : false,
  "readonly" : false,
  "attach_type" : {
    "name" : "webanno.custom.Mentions"
  },
  "attach_feature" : null,
  "allow_stacking" : false,
  "cross_sentence" : true,
  "show_hover" : true,
  "anchoring_mode" : "TOKENS",
  "overlap_mode" : "NO_OVERLAP",
  "validation_mode" : "ALWAYS",
  "lock_to_token_offset" : false,
  "multiple_tokens" : true,
  "project_name" : "CORLI-GUMbis",
  "linked_list_behavior" : false,
  "on_click_javascript_action" : null,
  "traits" : null
}, {
  "name" : "webanno.custom.Mentions",
  "features" : [ {
    "name" : "Commentaires",
    "tag_set" : null,
    "uiName" : "Commentaires",
    "type" : "uima.cas.String",
    "enabled" : true,
    "visible" : true,
    "include_in_hover" : false,
    "required" : false,
    "remember" : false,
    "hideUnconstraintFeature" : false,
    "description" : null,
    "project_name" : "CORLI-GUMbis",
    "multi_value_mode" : "NONE",
    "link_mode" : "NONE",
    "link_type_name" : null,
    "link_type_role_feature_name" : null,
    "link_type_target_feature_name" : null,
    "traits" : "{\"multipleRows\":false,\"dynamicSize\":false,\"collapsedRows\":1,\"expandedRows\":1,\"editorType\":\"AUTO\",\"keyBindings\":[]}",
    "curatable" : true
  } ],
  "uiName" : "Mentions",
  "type" : "span",
  "description" : "Délimitation des mentions telles que définies dans le guide Democrat repris dans le guide ResolCo (présent dans la documentation)",
  "enabled" : true,
  "built_in" : false,
  "readonly" : false,
  "attach_type" : null,
  "attach_feature" : null,
  "allow_stacking" : false,
  "cross_sentence" : false,
  "show_hover" : true,
  "anchoring_mode" : "TOKENS",
  "overlap_mode" : "NO_OVERLAP",
  "validation_mode" : "ALWAYS",
  "lock_to_token_offset" : false,
  "multiple_tokens" : true,
  "project_name" : "CORLI-GUMbis",
  "linked_list_behavior" : false,
  "on_click_javascript_action" : null,
  "traits" : null
} ]