{
  "name" : "DiscourseMarkers Domain",
  "description" : null,
  "language" : null,
  "tags" : [ {
    "tag_name" : "ideational",
    "tag_description" : "The ideational domain “is linked to states of affairs in the world, semantic relations between external events”. In other words, the relation between the two discourse objects exists independently in the real world. It corresponds to objective relations and presents the lowest degree of speaker involvement (Crible & Degand 2019)"
  }, {
    "tag_name" : "interpersonal",
    "tag_description" : "The interpersonal domain “is linked to the interactive management of the exchange and the speaker-hearer relationship”. Interpersonal DMs have a phatic function to call for attention or to manifest understanding. (Crible et Degand 2019)"
  }, {
    "tag_name" : "rhetorical",
    "tag_description" : "The rhetorical domain “is linked to the speaker’s meta-comments on the on-going speech and also includes relations between epistemic or speech-act events”. It corresponds to subjective relations and always involves the speaker’s attitude or reasoning. (Crible et Degand 2019)"
  }, {
    "tag_name" : "sequential",
    "tag_description" : "The sequential domain “is linked to the structuring of local and global discourse segments such as topics and turns”. This means that local management of smaller units (hesitation breaks, other types of filled pauses) will be included in this domain, along with more structural functions such as turn-taking or topic-shifting. Sequential functions explicitly signal the progressing steps of speech and thought. (Crible et Degand 2019)"
  } ],
  "create_tag" : false
}