[ {
  "name" : "webanno.custom.DiscoursRelations",
  "features" : [ {
    "name" : "Commentaires",
    "tag_set" : null,
    "uiName" : "Commentaires",
    "type" : "uima.cas.String",
    "enabled" : true,
    "visible" : true,
    "include_in_hover" : false,
    "required" : false,
    "remember" : false,
    "hideUnconstraintFeature" : false,
    "description" : null,
    "project_name" : "CORLI-GUMbis",
    "multi_value_mode" : "NONE",
    "link_mode" : "NONE",
    "link_type_name" : null,
    "link_type_role_feature_name" : null,
    "link_type_target_feature_name" : null,
    "traits" : "{\"multipleRows\":false,\"dynamicSize\":false,\"collapsedRows\":1,\"expandedRows\":1,\"editorType\":\"AUTO\",\"keyBindings\":[]}",
    "curatable" : true
  }, {
    "name" : "Relation",
    "tag_set" : {
      "name" : "DiscourseRelations (SDRT)",
      "description" : "Jeu de relation définis en SDRT pour le Français (projet ANNODIS et ResolCo)",
      "language" : "French",
      "tags" : [ {
        "tag_name" : "alternance",
        "tag_description" : "Deux segments sont reliés par une relation d’Alternance lorsqu’il y a une disjonction entre eux."
      }, {
        "tag_name" : "arriere-plan",
        "tag_description" : "Deux segments sont reliés par la relation d’Arrière-Plan lorsque l’un des deux segments décrit la scène servant d’arrière-plan à l’événement décrit par l’autre. Le segment qui décrit l’arrière-plan a un état comme éventualité principale (dans les textes narratifs, cela correspond souvent à l’usage de l’imparfait)."
      }, {
        "tag_name" : "attribution",
        "tag_description" : "Deux segments sont reliés par une relation d’Attribution (i.e. attribution (a,b)) lorsqu’un acte de parole b est attribué à l’agent de cet acte qui doit être explicite dans le segment a (discours (in)direct (libre))."
      }, {
        "tag_name" : "but",
        "tag_description" : "Deux segments sont reliés par la relation de But lorsque l’un (le segment attaché) des segments présente de façon explicite le but/l’objectif de l’action décrite dans l’autre (le segment cible). Une éventualité est présentée comme la motivation d’une action réalisée ou bien d’un état que l’on souhaite atteindre grâce à cette éventualité. Selon les règles de l’attachement, le deuxième argument de la relation sera le but visé."
      }, {
        "tag_name" : "cadre",
        "tag_description" : "Deux segments sont reliés par la relation de Cadre lorsque l’un est un segment introducteur de cadre (i.e. un adverbial détaché en tête de phrase ou en début de constituant) et l’autre est le segment sur lequel porte ce cadre. Ce second argument peut être un segment complexe étant donné qu’un introducteur de cadre en tête de phrase peut avoir une portée au-delà de cette phrase."
      }, {
        "tag_name" : "commentaire",
        "tag_description" : "Deux segments sont reliés par la relation de Commentaire lorsque l’un donne le point de vue d’un agent ou de l’auteur sur ce qui est décrit dans l’autre."
      }, {
        "tag_name" : "conditionnel",
        "tag_description" : "Deux segments sont reliés par la relation de Conditionnel lorsque le premier segment est une hypothèse et le second est la conséquence de cette hypothèse.\r\n(!) Le premier argument de la relation correspondra toujours à l’hypothèse."
      }, {
        "tag_name" : "continuation",
        "tag_description" : "Deux segments sont reliés par la relation de Continuation lorsque le second segment continue simplement le rôle rhétorique du premier (exemple : une Explication ou une Elaboration faite dans le premier)."
      }, {
        "tag_name" : "contraste",
        "tag_description" : "Deux segments sont reliés par une relation de Contraste s’il y a la présence d’un marqueur explicite (comme mais, par contre, cependant…etc)."
      }, {
        "tag_name" : "elaboration",
        "tag_description" : "Deux segments sont reliés par la relation d’Elaboration lorsque la seconde proposition décrit un sous-état ou un sous-événement de l’éventualité décrite dans la première proposition (i.e. événement←sous-événement ou état← sous-état). \r\nCette relation inclut également les cas d’exemplification, de reformulation et de paraphrase."
      }, {
        "tag_name" : "elaboration-entite",
        "tag_description" : "Deux segments sont reliés par la relation d’Elaboration d’entité lorsque le segment attaché (i.e. le second segment) précise une propriété d’une des entités impliquées dans le segment cible (i.e. le premier segment), que celle-ci soit importante (i.e. définitoire) ou marginale."
      }, {
        "tag_name" : "explication",
        "tag_description" : "Deux segments sont reliés par la relation d’Explication lorsqu’on considère que le second segment (l'UDE attachée) explique le premier (l'UDE cible) de façon explicite ou non (indépendamment de l’ordre d’apparition des segments dans le texte). Autrement dit, on a une éventualité qui est présentée comme la cause d’une autre éventualité. Le premier argument de la relation est le segment expliqué. Le second argument correspond au segment qui est la cause du premier segment."
      }, {
        "tag_name" : "narration",
        "tag_description" : "La relation de Narration est fondée sur la maxime d’ordre de Grice : deux segments reliés par narration décrivent, dans l’ordre d’occurrence, deux éventualités d’une même histoire (i.e. les éventualités décrites sont temporellement ordonnées : 1 < 2)."
      }, {
        "tag_name" : "parallele",
        "tag_description" : "Deux segments sont reliés par la relation de Parallèle lorsque ceux-ci ont une construction similaire (souvent syntaxique mais pas toujours. Le parallélisme peut être identifié grâce à la sémantique des verbes et/ou au marqueur.)"
      }, {
        "tag_name" : "resultat",
        "tag_description" : "Deux segments sont reliés par la relation de Résultat lorsqu’on a deux segments décrivant deux éventualités (événements ou états) dont la deuxième résulte/est la conséquence de la première."
      }, {
        "tag_name" : "retour-arriere",
        "tag_description" : "Relation de « narration dans l’autre sens ». Autrement dit, au lieu de raconter les événements dans l’ordre dans lequel ils se sont produits, on fait un retour en arrière sur un événement qui s’est produit avant."
      } ],
      "create_tag" : false
    },
    "uiName" : "Relation",
    "type" : "uima.cas.String",
    "enabled" : true,
    "visible" : true,
    "include_in_hover" : false,
    "required" : false,
    "remember" : false,
    "hideUnconstraintFeature" : false,
    "description" : null,
    "project_name" : "CORLI-GUMbis",
    "multi_value_mode" : "NONE",
    "link_mode" : "NONE",
    "link_type_name" : null,
    "link_type_role_feature_name" : null,
    "link_type_target_feature_name" : null,
    "traits" : "{\"multipleRows\":false,\"dynamicSize\":false,\"collapsedRows\":1,\"expandedRows\":1,\"editorType\":\"AUTO\",\"keyBindings\":[]}",
    "curatable" : true
  } ],
  "uiName" : "DiscoursRelations",
  "type" : "relation",
  "description" : null,
  "enabled" : true,
  "built_in" : false,
  "readonly" : false,
  "attach_type" : {
    "name" : "webanno.custom.DiscourseUnits"
  },
  "attach_feature" : null,
  "allow_stacking" : false,
  "cross_sentence" : true,
  "show_hover" : true,
  "anchoring_mode" : "TOKENS",
  "overlap_mode" : "NO_OVERLAP",
  "validation_mode" : "ALWAYS",
  "lock_to_token_offset" : false,
  "multiple_tokens" : true,
  "project_name" : "CORLI-GUMbis",
  "linked_list_behavior" : false,
  "on_click_javascript_action" : null,
  "traits" : null
}, {
  "name" : "webanno.custom.DiscourseUnits",
  "features" : [ {
    "name" : "Commentaires",
    "tag_set" : null,
    "uiName" : "Commentaires",
    "type" : "uima.cas.String",
    "enabled" : true,
    "visible" : true,
    "include_in_hover" : false,
    "required" : false,
    "remember" : false,
    "hideUnconstraintFeature" : false,
    "description" : null,
    "project_name" : "CORLI-GUMbis",
    "multi_value_mode" : "NONE",
    "link_mode" : "NONE",
    "link_type_name" : null,
    "link_type_role_feature_name" : null,
    "link_type_target_feature_name" : null,
    "traits" : "{\"multipleRows\":false,\"dynamicSize\":false,\"collapsedRows\":1,\"expandedRows\":1,\"editorType\":\"AUTO\",\"keyBindings\":[]}",
    "curatable" : true
  }, {
    "name" : "UDE",
    "tag_set" : null,
    "uiName" : "UDE",
    "type" : "uima.cas.String",
    "enabled" : true,
    "visible" : true,
    "include_in_hover" : false,
    "required" : false,
    "remember" : false,
    "hideUnconstraintFeature" : false,
    "description" : "Segmentation en unités de discours élémentaires correspondant de façon prototypique à une proposition indépendante qui décrit en\r\nun événement ou un état unique.\r\nVoir le guide SegmentationUDE_RelationsDiscursive_mathildeLALA_2017 et les exemples de segmentations proposés par M Lala dans le cadre de son mémoire (2017) : exemplesAnnotationRelationsDIscursives_mathildeLALA_2017",
    "project_name" : "CORLI-GUMbis",
    "multi_value_mode" : "NONE",
    "link_mode" : "NONE",
    "link_type_name" : null,
    "link_type_role_feature_name" : null,
    "link_type_target_feature_name" : null,
    "traits" : "{\"multipleRows\":false,\"dynamicSize\":false,\"collapsedRows\":1,\"expandedRows\":1,\"editorType\":\"AUTO\",\"keyBindings\":[]}",
    "curatable" : true
  } ],
  "uiName" : "DiscourseUnits",
  "type" : "span",
  "description" : null,
  "enabled" : true,
  "built_in" : false,
  "readonly" : false,
  "attach_type" : null,
  "attach_feature" : null,
  "allow_stacking" : true,
  "cross_sentence" : false,
  "show_hover" : true,
  "anchoring_mode" : "TOKENS",
  "overlap_mode" : "ANY_OVERLAP",
  "validation_mode" : "ALWAYS",
  "lock_to_token_offset" : false,
  "multiple_tokens" : true,
  "project_name" : "CORLI-GUMbis",
  "linked_list_behavior" : false,
  "on_click_javascript_action" : null,
  "traits" : null
} ]