{
  "name" : "DiscourseMarkers Function",
  "description" : "The signalling function of the discourse marker as detailed in Crible et Degand (2019)",
  "language" : null,
  "tags" : [ {
    "tag_name" : "ADD",
    "tag_description" : "Addition (ADD): the marker signals that the second segment provides discourse-new information that is related to (but different from) the first."
  }, {
    "tag_name" : "AGR",
    "tag_description" : "Agreeing (AGR): the marker signals agreement with the other speaker."
  }, {
    "tag_name" : "ALT",
    "tag_description" : "Alternative (ALT): the marker signals that the segments are alternative situations, exclusive or not. The two units can replace each other."
  }, {
    "tag_name" : "CAU",
    "tag_description" : "Cause (CAU): the marker signals that the segment it connects causally explains the situation in the other segment."
  }, {
    "tag_name" : "CCS",
    "tag_description" : "Concession (CCS): the marker signals that the segment it connects denies one or several expectations related to the other segment."
  }, {
    "tag_name" : "CND",
    "tag_description" : "Condition (CND): the marker signals that the segment it connects is the condition for the truth or relevance of the other segment."
  }, {
    "tag_name" : "CSQ",
    "tag_description" : "Consequence (CSQ): the marker signals that the situation in the segment it connects is the result of the situation in the other segment."
  }, {
    "tag_name" : "CTR",
    "tag_description" : "Contrast (CTR): the marker signals that there is a shared property between the two segments and that they differ with respect to this property, without any causal inference."
  }, {
    "tag_name" : "DIS",
    "tag_description" : "Disagreeing (DIS): the marker signals disagreement with the other speaker.\r\nWorks only with interpersonal domain"
  }, {
    "tag_name" : "HDG",
    "tag_description" : "Hedging (HDG): the marker signals some approximation."
  }, {
    "tag_name" : "MNT",
    "tag_description" : "Monitoring (MNT): the marker signals the speaker’s intent to control the discourse flow."
  }, {
    "tag_name" : "QUO",
    "tag_description" : "Quoting (QUO): the marker introduces (pseudo-)reported speech.\r\nWorks only with sequential domain"
  }, {
    "tag_name" : "SPE",
    "tag_description" : "Specification (SPE): the marker signals that the segment it connects elaborates on the previous segment by giving more detailed information or an example."
  }, {
    "tag_name" : "TMP",
    "tag_description" : "Temporal (TMP): the marker signals that the situations in the two segments are chronologically ordered."
  }, {
    "tag_name" : "TOP",
    "tag_description" : "Topic (TOP): the marker signals a start of topic, change of topic or return to a previous topic within or between turns. A distant connection to the previous context can remain, with a shift in focus.\r\nWorks only with sequential domain"
  } ],
  "create_tag" : false
}