[ {
  "name" : "webanno.custom.Sentencesegmetation",
  "features" : [ {
    "name" : "Commentaires",
    "tag_set" : null,
    "uiName" : "Commentaires",
    "type" : "uima.cas.String",
    "enabled" : true,
    "visible" : true,
    "include_in_hover" : false,
    "required" : false,
    "remember" : false,
    "hideUnconstraintFeature" : false,
    "description" : null,
    "project_name" : "CORLI-GUMbis",
    "multi_value_mode" : "NONE",
    "link_mode" : "NONE",
    "link_type_name" : null,
    "link_type_role_feature_name" : null,
    "link_type_target_feature_name" : null,
    "traits" : "{\"multipleRows\":false,\"dynamicSize\":false,\"collapsedRows\":1,\"expandedRows\":1,\"editorType\":\"AUTO\",\"keyBindings\":[]}",
    "curatable" : true
  }, {
    "name" : "SentenceType",
    "tag_set" : {
      "name" : "SentenceType",
      "description" : "Voir le guide ici : https://groupes.renater.fr/wiki/corligum/annotation_des_phrases_segmentation_et_categorisation",
      "language" : null,
      "tags" : [ {
        "tag_name" : "titre",
        "tag_description" : "Titre de texte, de chapitre, de section ou légende de figure, de tableau"
      }, {
        "tag_name" : "decl",
        "tag_description" : "Phrase déclarative"
      }, {
        "tag_name" : "imp",
        "tag_description" : "phrase impérative"
      }, {
        "tag_name" : "interro",
        "tag_description" : "Phrase interrogative directe"
      }, {
        "tag_name" : "inf",
        "tag_description" : "infinitive"
      }, {
        "tag_name" : "intj",
        "tag_description" : "Interjection ('Salut !', 'Mmmmouais')"
      }, {
        "tag_name" : "frag",
        "tag_description" : "fragment de phrase sans structure sujet-prédicat complète (ex : amorce ou item d'énumération, adresses d'ouverture \"Chère collègue,\"). Attention, les infinitives indépendantes ne sont pas considérer comme des fragments, même si elles ne contiennent pas de verbe fini."
      }, {
        "tag_name" : "multi",
        "tag_description" : "coordination de plusieurs types"
      }, {
        "tag_name" : "autre",
        "tag_description" : "type non couvert par le modèle (indiquez en commentaire le type de phrase)"
      } ],
      "create_tag" : true
    },
    "uiName" : "SentenceType",
    "type" : "uima.cas.String",
    "enabled" : true,
    "visible" : true,
    "include_in_hover" : false,
    "required" : false,
    "remember" : false,
    "hideUnconstraintFeature" : false,
    "description" : null,
    "project_name" : "CORLI-GUMbis",
    "multi_value_mode" : "NONE",
    "link_mode" : "NONE",
    "link_type_name" : null,
    "link_type_role_feature_name" : null,
    "link_type_target_feature_name" : null,
    "traits" : "{\"multipleRows\":false,\"dynamicSize\":false,\"collapsedRows\":1,\"expandedRows\":1,\"editorType\":\"AUTO\",\"keyBindings\":[]}",
    "curatable" : true
  } ],
  "uiName" : "Sentence segmentation",
  "type" : "span",
  "description" : "Voir le guide ici : https://groupes.renater.fr/wiki/corligum/annotation_des_phrases_segmentation_et_categorisation",
  "enabled" : true,
  "built_in" : false,
  "readonly" : false,
  "attach_type" : null,
  "attach_feature" : null,
  "allow_stacking" : false,
  "cross_sentence" : true,
  "show_hover" : true,
  "anchoring_mode" : "CHARACTERS",
  "overlap_mode" : "NO_OVERLAP",
  "validation_mode" : "ALWAYS",
  "lock_to_token_offset" : false,
  "multiple_tokens" : false,
  "project_name" : "CORLI-GUMbis",
  "linked_list_behavior" : false,
  "on_click_javascript_action" : null,
  "traits" : null
} ]